\relax 
\citation{meinshausen2006high}
\citation{KevinP}
\citation{gopalan2012scalable}
\bibstyle{ieee}
\bibcite{meinshausen2006high}{1}
\bibcite{KevinP}{2}
\bibcite{gopalan2012scalable}{3}
\pgfsyspdfmark {pgfid1}{1780200}{797160}
\newlabel{glasso}{{1}{2}}
\newlabel{cond}{{2}{2}}
\newlabel{complete}{{4}{2}}
\newlabel{var_inf}{{5}{2}}
\newlabel{update_global}{{6}{2}}
\newlabel{update_local}{{7}{2}}
